# 3ds Max Wavefront OBJ Exporter v0.97b - (c)2007 guruware
# File Created: 29.01.2010 05:17:53

newmtl wire_145028177
	Ns 32
	d 1
	Tr 0
	Tf 1 1 1
	illum 2
	Ka 0.568627 0.109804 0.694118
	Kd 0.568627 0.109804 0.694118
	Ks 0.350000 0.350000 0.350000
